<?xml version="1.0" encoding="UTF-8" standalone="no"?>
<svg
   xmlns:dc="http://purl.org/dc/elements/1.1/"
   xmlns:cc="http://creativecommons.org/ns#"
   xmlns:rdf="http://www.w3.org/1999/02/22-rdf-syntax-ns#"
   xmlns:svg="http://www.w3.org/2000/svg"
   xmlns="http://www.w3.org/2000/svg"
   xmlns:sodipodi="http://sodipodi.sourceforge.net/DTD/sodipodi-0.dtd"
   xmlns:inkscape="http://www.inkscape.org/namespaces/inkscape"
   width="160.53323mm"
   height="87.650269mm"
   viewBox="0 0 160.53323 87.650269"
   version="1.1"
   id="svg8"
   inkscape:version="1.0 (4035a4fb49, 2020-05-01)"
   sodipodi:docname="ipm_graphik.svg">
  <defs
     id="defs2">
    <marker
       inkscape:isstock="true"
       style="overflow:visible"
       id="marker1310"
       refX="0"
       refY="0"
       orient="auto"
       inkscape:stockid="Arrow1Mstart">
      <path
         transform="matrix(0.4,0,0,0.4,4,0)"
         style="fill:#000000;fill-opacity:1;fill-rule:evenodd;stroke:#000000;stroke-width:1pt;stroke-opacity:1"
         d="M 0,0 5,-5 -12.5,0 5,5 Z"
         id="path1308" />
    </marker>
    <marker
       inkscape:isstock="true"
       style="overflow:visible"
       id="marker1270"
       refX="0"
       refY="0"
       orient="auto"
       inkscape:stockid="Arrow1Mend">
      <path
         transform="matrix(-0.4,0,0,-0.4,-4,0)"
         style="fill:#000000;fill-opacity:1;fill-rule:evenodd;stroke:#000000;stroke-width:1pt;stroke-opacity:1"
         d="M 0,0 5,-5 -12.5,0 5,5 Z"
         id="path1268" />
    </marker>
    <marker
       inkscape:stockid="Arrow1Mend"
       orient="auto"
       refY="0"
       refX="0"
       id="Arrow1Mend"
       style="overflow:visible"
       inkscape:isstock="true"
       inkscape:collect="always">
      <path
         id="path907"
         d="M 0,0 5,-5 -12.5,0 5,5 Z"
         style="fill:#000000;fill-opacity:1;fill-rule:evenodd;stroke:#000000;stroke-width:1pt;stroke-opacity:1"
         transform="matrix(-0.4,0,0,-0.4,-4,0)" />
    </marker>
    <marker
       inkscape:stockid="Arrow1Mstart"
       orient="auto"
       refY="0"
       refX="0"
       id="Arrow1Mstart"
       style="overflow:visible"
       inkscape:isstock="true"
       inkscape:collect="always">
      <path
         id="path904"
         d="M 0,0 5,-5 -12.5,0 5,5 Z"
         style="fill:#000000;fill-opacity:1;fill-rule:evenodd;stroke:#000000;stroke-width:1pt;stroke-opacity:1"
         transform="matrix(0.4,0,0,0.4,4,0)" />
    </marker>
    <marker
       inkscape:stockid="Arrow1Lstart"
       orient="auto"
       refY="0"
       refX="0"
       id="Arrow1Lstart"
       style="overflow:visible"
       inkscape:isstock="true">
      <path
         id="path898"
         d="M 0,0 5,-5 -12.5,0 5,5 Z"
         style="fill:#000000;fill-opacity:1;fill-rule:evenodd;stroke:#000000;stroke-width:1pt;stroke-opacity:1"
         transform="matrix(0.8,0,0,0.8,10,0)" />
    </marker>
    <marker
       inkscape:stockid="Arrow1Mstart"
       orient="auto"
       refY="0"
       refX="0"
       id="marker1310-3"
       style="overflow:visible"
       inkscape:isstock="true">
      <path
         id="path1308-5"
         d="M 0,0 5,-5 -12.5,0 5,5 Z"
         style="fill:#000000;fill-opacity:1;fill-rule:evenodd;stroke:#000000;stroke-width:1pt;stroke-opacity:1"
         transform="matrix(0.4,0,0,0.4,4,0)" />
    </marker>
    <marker
       inkscape:stockid="Arrow1Mend"
       orient="auto"
       refY="0"
       refX="0"
       id="marker1270-1"
       style="overflow:visible"
       inkscape:isstock="true">
      <path
         id="path1268-3"
         d="M 0,0 5,-5 -12.5,0 5,5 Z"
         style="fill:#000000;fill-opacity:1;fill-rule:evenodd;stroke:#000000;stroke-width:1pt;stroke-opacity:1"
         transform="matrix(-0.4,0,0,-0.4,-4,0)" />
    </marker>
  </defs>
  <sodipodi:namedview
     id="base"
     pagecolor="#ffffff"
     bordercolor="#666666"
     borderopacity="1.0"
     inkscape:pageopacity="0.0"
     inkscape:pageshadow="2"
     inkscape:zoom="1.979899"
     inkscape:cx="393.08444"
     inkscape:cy="159.60416"
     inkscape:document-units="mm"
     inkscape:current-layer="layer1"
     inkscape:document-rotation="0"
     showgrid="false"
     inkscape:window-width="2560"
     inkscape:window-height="1377"
     inkscape:window-x="-8"
     inkscape:window-y="-8"
     inkscape:window-maximized="1" />
  <metadata
     id="metadata5">
    <rdf:RDF>
      <cc:Work
         rdf:about="">
        <dc:format>image/svg+xml</dc:format>
        <dc:type
           rdf:resource="http://purl.org/dc/dcmitype/StillImage" />
        <dc:title />
      </cc:Work>
    </rdf:RDF>
  </metadata>
  <g
     inkscape:label="Ebene 1"
     inkscape:groupmode="layer"
     id="layer1"
     transform="translate(2.1882626,-84.695034)">
    <text
       xml:space="preserve"
       style="font-size:4.23333px;line-height:1.25;font-family:sans-serif;stroke-width:0.264583"
       x="148.20094"
       y="77.775429"
       id="text856"><tspan
         sodipodi:role="line"
         id="tspan854"
         x="148.20094"
         y="77.775429"
         style="stroke-width:0.264583" /></text>
    <text
       xml:space="preserve"
       style="font-size:4.23333px;line-height:1.25;font-family:sans-serif;stroke-width:0.264583"
       x="64.67923"
       y="109.44687"
       id="text874"><tspan
         sodipodi:role="line"
         id="tspan872"
         x="64.67923"
         y="109.44687"
         style="stroke-width:0.264583" /></text>
    <path
       style="fill:none;stroke:#000000;stroke-width:0.465;stroke-linecap:butt;stroke-linejoin:miter;stroke-miterlimit:4;stroke-dasharray:none;stroke-opacity:1"
       d="m 18.040693,110.64958 c 0,38.08591 0,38.08591 0,38.08591"
       id="path835" />
    <path
       style="fill:none;stroke:#000000;stroke-width:0.465;stroke-linecap:butt;stroke-linejoin:miter;stroke-miterlimit:4;stroke-dasharray:none;stroke-opacity:1"
       d="m 137.91107,84.696912 c 0.0935,11.574748 0.24746,24.905338 0,26.593378"
       id="path837"
       sodipodi:nodetypes="cc" />
    <path
       id="path837-7"
       d="m 137.77744,145.75183 c 0,26.59347 0,26.59347 0,26.59347"
       style="fill:none;stroke:#000000;stroke-width:0.465;stroke-linecap:butt;stroke-linejoin:miter;stroke-miterlimit:4;stroke-dasharray:none;stroke-opacity:1" />
    <text
       xml:space="preserve"
       style="font-size:4.93889px;line-height:1.25;font-family:sans-serif;stroke-width:0.264583"
       x="138.44562"
       y="88.466217"
       id="text860"><tspan
         sodipodi:role="line"
         x="138.44562"
         y="88.466217"
         style="font-size:4.93889px;stroke-width:0.264583"
         id="tspan862">\(I_0\)</tspan></text>
    <text
       xml:space="preserve"
       style="font-size:4.93889px;line-height:1.25;font-family:sans-serif;stroke-width:0.264583"
       x="139.38106"
       y="170.96812"
       id="text868"><tspan
         sodipodi:role="line"
         id="tspan866"
         x="139.38106"
         y="170.96812"
         style="font-size:4.93889px;stroke-width:0.264583">\(I_2\)</tspan></text>
    <path
       style="fill:none;stroke:#1102e0;stroke-width:0.264583px;stroke-linecap:butt;stroke-linejoin:miter;stroke-opacity:1"
       d="M 137.51017,98.221551 18.307962,139.9156 137.64381,159.82718"
       id="path870"
       sodipodi:nodetypes="ccc" />
    <text
       xml:space="preserve"
       style="font-size:4.93889px;line-height:1.25;font-family:sans-serif;stroke-width:0.264583"
       x="70.02462"
       y="119.87038"
       id="text878"><tspan
         sodipodi:role="line"
         id="tspan876"
         x="70.02462"
         y="119.87038"
         style="font-size:4.93889px;stroke-width:0.264583">r</tspan></text>
    <text
       xml:space="preserve"
       style="font-size:4.93889px;line-height:1.25;font-family:sans-serif;stroke-width:0.264583"
       x="70.826416"
       y="156.19214"
       id="text882"><tspan
         sodipodi:role="line"
         id="tspan880"
         x="70.826416"
         y="156.19214"
         style="font-size:4.93889px;stroke-width:0.264583">r'</tspan></text>
    <path
       style="fill:none;stroke:#ff0909;stroke-width:0.365;stroke-linecap:butt;stroke-linejoin:miter;stroke-miterlimit:4;stroke-dasharray:none;stroke-opacity:1"
       d="M 18.307962,139.9156 H 137.2429 V 98.355186"
       id="path886"
       sodipodi:nodetypes="ccc" />
    <path
       style="fill:none;stroke:#ff0000;stroke-width:0.365;stroke-linecap:butt;stroke-linejoin:miter;stroke-miterlimit:4;stroke-dasharray:none;stroke-opacity:1"
       d="m 137.2429,139.9156 v 19.64431"
       id="path888"
       sodipodi:nodetypes="cc" />
    <text
       xml:space="preserve"
       style="font-size:4.93889px;line-height:1.25;font-family:sans-serif;stroke-width:0.265;stroke-miterlimit:4;stroke-dasharray:none"
       x="94.479774"
       y="139.24742"
       id="text892"><tspan
         sodipodi:role="line"
         id="tspan890"
         x="94.479774"
         y="139.24742"
         style="font-size:4.93889px;stroke-width:0.265;stroke-miterlimit:4;stroke-dasharray:none">d</tspan></text>
    <path
       style="fill:none;stroke:#000000;stroke-width:0.365;stroke-linecap:butt;stroke-linejoin:miter;stroke-miterlimit:4;stroke-dasharray:2.19, 2.19;stroke-dashoffset:0;stroke-opacity:1"
       d="M 17.907058,128.69028 H 137.10927"
       id="path894" />
    <path
       style="fill:none;stroke:#000000;stroke-width:0.264583px;stroke-linecap:butt;stroke-linejoin:miter;stroke-opacity:1;marker-start:url(#Arrow1Mstart);marker-mid:url(#Arrow1Mstart);marker-end:url(#Arrow1Mend)"
       d="m 14.967093,128.69028 c 0,11.35895 0,11.35895 0,11.35895"
       id="path896" />
    <text
       xml:space="preserve"
       style="font-size:4.93889px;line-height:1.25;font-family:sans-serif;stroke-width:0.264583"
       x="-2.3570724"
       y="136.04019"
       id="text1264"><tspan
         sodipodi:role="line"
         id="tspan1262"
         x="-2.3570724"
         y="136.04019"
         style="font-size:4.93889px;stroke-width:0.264583">\(\Delta x\)</tspan></text>
    <path
       style="fill:none;stroke:#000000;stroke-width:0.365;stroke-linecap:butt;stroke-linejoin:miter;stroke-miterlimit:4;stroke-dasharray:none;stroke-opacity:1;marker-start:url(#marker1310);marker-end:url(#marker1270)"
       d="M 140.45013,98.355185 V 128.42301"
       id="path1266"
       sodipodi:nodetypes="cc" />
    <text
       xml:space="preserve"
       style="font-size:4.93889px;line-height:1.25;font-family:sans-serif;stroke-width:0.264583"
       x="140.58377"
       y="115.86135"
       id="text1368"><tspan
         sodipodi:role="line"
         id="tspan1366"
         x="140.58377"
         y="115.86135"
         style="font-size:4.93889px;stroke-width:0.264583">\(x_0\)</tspan></text>
  </g>
</svg>
