RUN;EVENT;$P_{Charged}$;Ctrk(N);Ecal(SumE);Hcal(SumE)
2566;163733;50,9;2;82,6;0
2566;164639;54,8;2;84,1;11,2
2566;165523;95,2;2;90;0
2566;165548;82,6;3;92,3;0
2566;165576;82;2;86,8;0
2566;166436;38,1;2;89,5;0
2566;166598;97,5;2;68,9;0
2566;167067;85,5;2;61,5;0
2566;167490;75,7;2;93,6;0
2566;167703;91,4;2;96,1;1,7
