RUN;EVENT;Ctrk(Sump);Ctrk(N);Ecal(SumE);Hcal(SumE)
2566;163424;38,3;6;24;13,9
2566;163841;63,2;2;27,8;3,8
2566;164371;41,2;6;31,8;0,7
2566;164892;39,1;2;1,9;40,5
2566;167641;60,8;2;58,2;8,7
2566;169555;17,8;6;30,9;0,9
2566;170371;73,8;5;51,1;10,2
2566;170508;46,5;2;17,3;8,2
2566;172460;19,4;3;65,6;0
2566;173188;23,1;2;2;0
