von Hamos  11.03.2021 13:17:06

N = 420

0 6933.195 0
1 6933.799 0
2 6934.402 0
3 6935.006 0
4 6935.61 0
5 6936.214 0
6 6936.818 0
7 6937.422 0
8 6938.025 0
9 6938.629 0
10 6939.233 0
11 6939.837 0
12 6940.441 0
13 6941.045 0
14 6941.648 0
15 6942.252 0
16 6942.856 0
17 6943.46 0
18 6944.064 0
19 6944.667 0
20 6945.271 0
21 6945.875 0
22 6946.479 0
23 6947.083 0
24 6947.687 0
25 6948.291 0
26 6948.895 0
27 6949.499 0
28 6950.102 0
29 6950.706 0
30 6951.31 0
31 6951.914 0
32 6952.518 0
33 6953.122 0
34 6953.725 0
35 6954.329 0
36 6954.933 0
37 6955.537 0
38 6956.141 0
39 6956.745 0
40 6957.348 0
41 6957.952 0
42 6958.556 0
43 6959.16 0
44 6959.764 0
45 6960.368 0
46 6960.971 0
47 6961.575 0
48 6962.179 0
49 6962.783 0
50 6963.387 0
51 6963.991 0
52 6964.594 0
53 6965.198 0
54 6965.802 0
55 6966.406 0
56 6967.01 0
57 6967.613 0
58 6968.217 0
59 6968.821 0
60 6969.425 0
61 6970.029 0
62 6970.633 0
63 6971.236 0
64 6971.84 0
65 6972.444 0
66 6973.048 0
67 6973.652 0
68 6974.256 0
69 6974.859 0
70 6975.463 0
71 6976.067 0
72 6976.671 0
73 6977.275 0
74 6977.879 0
75 6978.482 0
76 6979.086 0
77 6979.69 0
78 6980.294 0
79 6980.898 0
80 6981.502 0
81 6982.105 0
82 6982.709 0
83 6983.313 0
84 6983.917 0
85 6984.521 0
86 6985.125 0
87 6985.729 0
88 6986.333 0
89 6986.936 0
90 6987.54 3.734789E-20
91 6988.144 6.797119E-38
92 6988.748 4.721739E-19
93 6989.352 4.755252E-36
94 6989.956 3.786332E-18
95 6990.559 5.106597E-18
96 6991.163 2.327098E-33
97 6991.767 1.016891E-16
98 6992.371 2.113687E-16
99 6992.975 9.450923E-31
100 6993.579 2.309735E-15
101 6994.182 2.996239E-15
102 6994.786 3.068546E-28
103 6995.39 1.982808E-27
104 6995.994 9.658863E-14
105 6996.598 8.163801E-26
106 6997.202 9.052042E-14
107 6997.805 3.005849E-24
108 6998.409 2.857396E-12
109 6999.013 7.529363E-12
110 6999.617 2.065003E-11
111 7000.221 3.098463E-21
112 7000.825 3.486364E-12
113 7001.428 1.375575E-10
114 7002.032 5.710665E-11
115 7002.636 7.805152E-10
116 7003.24 1.898776E-09
117 7003.844 6.572277E-09
118 7004.448 2.44797E-16
119 7005.051 1.122564E-15
120 7005.655 7.474048E-09
121 7006.259 2.127695E-14
122 7006.863 2.46768E-07
123 7007.467 4.653265E-07
124 7008.07 8.429387E-07
125 7008.674 6.2822E-12
126 7009.278 4.727821E-07
127 7009.882 9.307775E-11
128 7010.486 3.455311E-10
129 7011.09 1.930736E-05
130 7011.693 5.856498E-06
131 7012.297 1.55505E-08
132 7012.901 5.179803E-08
133 7013.505 5.996709E-05
134 7014.109 0.000246497
135 7014.713 0.0007149646
136 7015.316 0.001806992
137 7015.92 0.003220905
138 7016.524 0.002957893
139 7017.128 0.0001430048
140 7017.732 0.01179241
141 7018.336 0.001136889
142 7018.939 0.03314775
143 7019.543 0.007979484
144 7020.147 0.05180779
145 7020.751 0.1330238
146 7021.355 0.1291137
147 7021.959 0.3118604
148 7022.563 0.3028801
149 7023.167 1.450933
150 7023.771 5.329944
151 7024.374 5.605873
152 7024.978 21.75884
153 7025.582 32.32841
154 7026.186 69.19043
155 7026.79 147.7823
156 7027.394 314.8588
157 7027.997 582.3838
158 7028.601 1119.094
159 7029.205 2029.665
160 7029.809 3683.427
161 7030.413 6463.318
162 7031.016 11043.65
163 7031.62 18463.23
164 7032.224 30115.65
165 7032.828 48489.66
166 7033.432 75825.45
167 7034.036 114992.1
168 7034.639 172050.5
169 7035.243 252811.9
170 7035.847 362934.8
171 7036.451 506071.2
172 7037.055 689186.6
173 7037.659 913497.8
174 7038.262 1193139
175 7038.866 1521059
176 7039.47 1908257
177 7040.074 2316814
178 7040.678 2748971
179 7041.282 3201341
180 7041.885 3649725
181 7042.489 4061781
182 7043.093 4435464
183 7043.697 4726598
184 7044.301 4930980
185 7044.905 5047689
186 7045.508 5085201
187 7046.112 5046537
188 7046.716 4963805
189 7047.32 4870420
190 7047.924 4816698
191 7048.528 4847075
192 7049.131 5013801
193 7049.735 5387921
194 7050.339 5980315
195 7050.943 6847534
196 7051.547 8049486
197 7052.15 9474280
198 7052.754 1.120685E+07
199 7053.358 1.318093E+07
200 7053.962 1.527913E+07
201 7054.566 1.742197E+07
202 7055.17 1.946657E+07
203 7055.773 2.129038E+07
204 7056.377 2.278006E+07
205 7056.981 2.397216E+07
206 7057.585 2.458512E+07
207 7058.189 2.464944E+07
208 7058.793 2.419075E+07
209 7059.396 2.318335E+07
210 7060 2.177235E+07
211 7060.604 1.992699E+07
212 7061.208 1.784374E+07
213 7061.812 1.567836E+07
214 7062.416 1.340039E+07
215 7063.02 1.125291E+07
216 7063.624 9187993
217 7064.228 7303831
218 7064.831 5736198
219 7065.435 4384847
220 7066.039 3259460
221 7066.643 2385497
222 7067.247 1708491
223 7067.851 1179568
224 7068.454 812245.1
225 7069.058 538280.5
226 7069.662 355972.9
227 7070.266 221806.2
228 7070.87 139790.4
229 7071.473 85663.17
230 7072.077 51447.52
231 7072.681 29246.54
232 7073.285 16515.98
233 7073.889 9304.276
234 7074.493 5096.402
235 7075.096 2730.238
236 7075.7 1392.677
237 7076.304 694.354
238 7076.908 355.1057
239 7077.512 160.5004
240 7078.116 87.04211
241 7078.719 32.85494
242 7079.323 13.23086
243 7079.927 8.292439
244 7080.531 1.917886
245 7081.135 2.279979
246 7081.739 0.8735944
247 7082.342 0.3519035
248 7082.946 0.08928683
249 7083.55 0.1171379
250 7084.154 0.03346127
251 7084.758 0.008915534
252 7085.362 0.01064662
253 7085.965 0.0006039914
254 7086.569 4.244373E-05
255 7087.173 0.007404189
256 7087.777 0.002383756
257 7088.381 0.0001340078
258 7088.985 0.0003421955
259 7089.588 0.0005802121
260 7090.192 2.22878E-07
261 7090.796 0.0002096169
262 7091.4 1.887086E-08
263 7092.004 8.24881E-06
264 7092.607 1.61153E-09
265 7093.211 4.171328E-10
266 7093.815 8.271032E-06
267 7094.419 3.76118E-06
268 7095.023 1.777936E-07
269 7095.627 1.894559E-12
270 7096.23 3.903584E-13
271 7096.834 9.612608E-14
272 7097.438 1.002288E-07
273 7098.042 1.278782E-08
274 7098.646 8.087754E-09
275 7099.25 7.208569E-10
276 7099.854 4.83135E-17
277 7100.458 9.664716E-18
278 7101.062 1.285735E-09
279 7101.665 4.445237E-19
280 7102.269 7.126166E-20
281 7102.873 1.479133E-20
282 7103.477 2.904668E-21
283 7104.081 7.537077E-12
284 7104.685 7.709845E-23
285 7105.288 1.471639E-23
286 7105.892 2.65988E-24
287 7106.496 3.735014E-25
288 7107.1 6.344344E-14
289 7107.704 9.768416E-27
290 7108.308 1.324758E-27
291 7108.911 2.344955E-28
292 7109.515 3.059846E-29
293 7110.119 1.6124E-15
294 7110.723 6.86777E-16
295 7111.327 2.076731E-16
296 7111.931 8.266825E-17
297 7112.534 5.900819E-18
298 7113.138 1.192535E-17
299 7113.742 2.408948E-35
300 7114.346 3.913155E-36
301 7114.95 3.824672E-37
302 7115.553 4.9988E-38
303 7116.157 2.250187E-39
304 7116.761 0
305 7117.365 0
306 7117.969 0
307 7118.573 0
308 7119.176 0
309 7119.78 0
310 7120.384 0
311 7120.988 0
312 7121.592 0
313 7122.196 0
314 7122.799 0
315 7123.403 0
316 7124.007 0
317 7124.611 0
318 7125.215 0
319 7125.819 0
320 7126.422 0
321 7127.026 0
322 7127.63 0
323 7128.234 0
324 7128.838 0
325 7129.442 0
326 7130.045 0
327 7130.649 0
328 7131.253 0
329 7131.857 0
330 7132.461 0
331 7133.065 0
332 7133.668 0
333 7134.272 0
334 7134.876 0
335 7135.48 0
336 7136.084 0
337 7136.688 0
338 7137.292 0
339 7137.896 0
340 7138.499 0
341 7139.103 0
342 7139.707 0
343 7140.311 0
344 7140.915 0
345 7141.519 0
346 7142.122 0
347 7142.726 0
348 7143.33 0
349 7143.934 0
350 7144.538 0
351 7145.142 0
352 7145.745 0
353 7146.349 0
354 7146.953 0
355 7147.557 0
356 7148.161 0
357 7148.765 0
358 7149.368 0
359 7149.972 0
360 7150.576 0
361 7151.18 0
362 7151.784 0
363 7152.388 0
364 7152.991 0
365 7153.595 0
366 7154.199 0
367 7154.803 0
368 7155.407 0
369 7156.01 0
370 7156.614 0
371 7157.218 0
372 7157.822 0
373 7158.426 0
374 7159.03 0
375 7159.633 0
376 7160.237 0
377 7160.841 0
378 7161.445 0
379 7162.049 0
380 7162.653 0
381 7163.256 0
382 7163.86 0
383 7164.464 0
384 7165.068 0
385 7165.672 0
386 7166.276 0
387 7166.879 0
388 7167.483 0
389 7168.087 0
390 7168.691 0
391 7169.295 0
392 7169.899 0
393 7170.502 0
394 7171.106 0
395 7171.71 0
396 7172.314 0
397 7172.918 0
398 7173.522 0
399 7174.125 0
400 7174.729 0
401 7175.333 0
402 7175.937 0
403 7176.541 0
404 7177.145 0
405 7177.749 0
406 7178.353 0
407 7178.956 0
408 7179.56 0
409 7180.164 0
410 7180.768 0
411 7181.372 0
412 7181.976 0
413 7182.579 0
414 7183.183 0
415 7183.787 0
416 7184.391 0
417 7184.995 0
418 7185.599 0
419 7186.202 0
