Gotthard SpA1  08.03.2021 17:19:27

N = 420

0 7466.556 0
1 7466.722 0
2 7466.889 0
3 7467.055 0
4 7467.221 0
5 7467.387 0
6 7467.554 0
7 7467.72 0
8 7467.886 0
9 7468.052 0
10 7468.218 0
11 7468.385 0
12 7468.551 0
13 7468.717 0
14 7468.883 0
15 7469.049 0
16 7469.216 0
17 7469.382 0
18 7469.548 0
19 7469.714 0
20 7469.881 0
21 7470.047 0
22 7470.213 0
23 7470.379 0
24 7470.545 0
25 7470.712 0
26 7470.878 0
27 7471.044 0
28 7471.21 0
29 7471.376 0
30 7471.543 0
31 7471.709 0
32 7471.875 0
33 7472.042 0
34 7472.208 1.935146E-36
35 7472.374 1.347706E-27
36 7472.54 9.255257E-20
37 7472.707 6.347657E-13
38 7472.873 4.347837E-07
39 7473.039 0.02974168
40 7473.205 203.1846
41 7473.372 138627.4
42 7473.538 9445845
43 7473.704 6.428191E+07
44 7473.87 4.469818E+07
45 7474.036 3.278812E+07
46 7474.203 8.764884E+07
47 7474.369 3.032896E+07
48 7474.535 5.960028E+07
49 7474.701 7.481472E+07
50 7474.867 2.122595E+07
51 7475.034 6.467133E+07
52 7475.2 3.673641E+07
53 7475.366 3.558608E+07
54 7475.532 7.966397E+07
55 7475.699 2.622156E+07
56 7475.865 7.636054E+07
57 7476.031 7.804211E+07
58 7476.197 3.289038E+07
59 7476.363 1.103289E+08
60 7476.53 5.112436E+07
61 7476.696 5.110475E+07
62 7476.862 9.334469E+07
63 7477.028 2.758123E+07
64 7477.194 8.145427E+07
65 7477.361 6.742452E+07
66 7477.527 3.319006E+07
67 7477.693 9.849898E+07
68 7477.859 3.845494E+07
69 7478.026 5.572268E+07
70 7478.192 8.376746E+07
71 7478.358 3.023817E+07
72 7478.524 1.158281E+08
73 7478.69 7.796639E+07
74 7478.857 4.758647E+07
75 7479.023 1.216757E+08
76 7479.189 4.178046E+07
77 7479.355 8.833613E+07
78 7479.521 1.08255E+08
79 7479.688 3.939922E+07
80 7479.854 1.394522E+08
81 7480.021 7.708103E+07
82 7480.187 7.11593E+07
83 7480.353 1.54795E+08
84 7480.519 4.481705E+07
85 7480.685 9.298271E+07
86 7480.852 9.251508E+07
87 7481.018 5.082107E+07
88 7481.184 1.792854E+08
89 7481.35 8.12283E+07
90 7481.517 8.526335E+07
91 7481.683 1.520615E+08
92 7481.849 4.214479E+07
93 7482.015 1.129739E+08
94 7482.181 9.147656E+07
95 7482.348 6.108144E+07
96 7482.514 1.863789E+08
97 7482.68 7.25112E+07
98 7482.846 1.250733E+08
99 7483.012 1.836279E+08
100 7483.179 5.164065E+07
101 7483.345 1.573423E+08
102 7483.511 1.036449E+08
103 7483.677 7.956893E+07
104 7483.844 2.03418E+08
105 7484.01 6.591312E+07
106 7484.176 1.149217E+08
107 7484.342 1.368521E+08
108 7484.508 5.466954E+07
109 7484.675 1.992126E+08
110 7484.841 1.077051E+08
111 7485.007 1.079109E+08
112 7485.173 2.299366E+08
113 7485.339 6.807541E+07
114 7485.506 1.626757E+08
115 7485.672 1.573218E+08
116 7485.838 6.423434E+07
117 7486.004 2.055509E+08
118 7486.171 9.10154E+07
119 7486.337 9.974295E+07
120 7486.503 1.737783E+08
121 7486.669 5.874696E+07
122 7486.835 2.150164E+08
123 7487.002 1.691479E+08
124 7487.168 8.889274E+07
125 7487.334 2.555256E+08
126 7487.5 9.692531E+07
127 7487.667 1.650233E+08
128 7487.833 2.359124E+08
129 7487.999 6.725839E+07
130 7488.166 2.083793E+08
131 7488.332 1.333963E+08
132 7488.498 9.371382E+07
133 7488.664 2.318636E+08
134 7488.83 7.803548E+07
135 7488.997 1.817294E+08
136 7489.163 2.115702E+08
137 7489.329 8.357692E+07
138 7489.495 2.983965E+08
139 7489.662 1.552893E+08
140 7489.828 1.152756E+08
141 7489.994 2.350684E+08
142 7490.16 7.537106E+07
143 7490.326 2.296679E+08
144 7490.493 2.169182E+08
145 7490.659 9.697177E+07
146 7490.825 3.123777E+08
147 7490.991 1.358036E+08
148 7491.157 1.642347E+08
149 7491.324 2.795985E+08
150 7491.49 7.788754E+07
151 7491.656 2.204641E+08
152 7491.822 1.689445E+08
153 7491.989 9.817114E+07
154 7492.155 2.803408E+08
155 7492.321 1.02861E+08
156 7492.487 1.624411E+08
157 7492.653 2.259975E+08
158 7492.82 7.550321E+07
159 7492.986 2.673941E+08
160 7493.152 1.669199E+08
161 7493.318 1.194361E+08
162 7493.484 2.888622E+08
163 7493.651 9.609754E+07
164 7493.817 2.313239E+08
165 7493.983 2.619184E+08
166 7494.149 8.270025E+07
167 7494.316 2.612401E+08
168 7494.482 1.345795E+08
169 7494.648 1.446564E+08
170 7494.814 2.939373E+08
171 7494.98 9.252847E+07
172 7495.147 2.7937E+08
173 7495.313 2.567157E+08
174 7495.479 1.068893E+08
175 7495.646 3.311154E+08
176 7495.812 1.391724E+08
177 7495.978 1.490733E+08
178 7496.144 2.464287E+08
179 7496.311 8.695324E+07
180 7496.477 3.33076E+08
181 7496.643 2.476373E+08
182 7496.809 1.020183E+08
183 7496.975 2.678027E+08
184 7497.142 1.016413E+08
185 7497.308 2.300851E+08
186 7497.474 3.134358E+08
187 7497.64 8.895001E+07
188 7497.807 2.740524E+08
189 7497.973 1.673757E+08
190 7498.139 1.40424E+08
191 7498.305 3.357132E+08
192 7498.471 1.04245E+08
193 7498.638 2.051551E+08
194 7498.804 2.258451E+08
195 7498.97 8.09613E+07
196 7499.136 2.688092E+08
197 7499.302 1.360892E+08
198 7499.469 1.675057E+08
199 7499.635 3.336314E+08
200 7499.801 1.01914E+08
201 7499.967 2.976598E+08
202 7500.134 2.666985E+08
203 7500.3 1.272649E+08
204 7500.466 3.999413E+08
205 7500.632 1.662867E+08
206 7500.798 2.14979E+08
207 7500.965 3.482286E+08
208 7501.131 1.05253E+08
209 7501.297 3.426085E+08
210 7501.463 2.490672E+08
211 7501.629 1.402464E+08
212 7501.796 3.806441E+08
213 7501.962 1.337779E+08
214 7502.128 2.178132E+08
215 7502.294 2.876516E+08
216 7502.461 9.772382E+07
217 7502.627 3.4418E+08
218 7502.793 2.046478E+08
219 7502.959 1.65348E+08
220 7503.125 3.844233E+08
221 7503.292 1.16645E+08
222 7503.458 2.275756E+08
223 7503.625 2.441691E+08
224 7503.791 9.831841E+07
225 7503.957 3.365548E+08
226 7504.123 1.640583E+08
227 7504.289 1.623269E+08
228 7504.456 3.119527E+08
229 7504.622 8.835608E+07
230 7504.788 2.254508E+08
231 7504.954 1.969884E+08
232 7505.12 1.11869E+08
233 7505.287 3.564021E+08
234 7505.453 1.428509E+08
235 7505.619 1.589662E+08
236 7505.785 2.49636E+08
237 7505.952 7.515174E+07
238 7506.118 2.446816E+08
239 7506.284 1.741388E+08
240 7506.45 1.250076E+08
241 7506.616 3.415761E+08
242 7506.783 1.173652E+08
243 7506.949 1.919284E+08
244 7507.115 2.469297E+08
245 7507.281 8.685245E+07
246 7507.447 3.092353E+08
247 7507.614 1.776042E+08
248 7507.78 1.072342E+08
249 7507.946 2.37098E+08
250 7508.112 7.837654E+07
251 7508.279 2.209471E+08
252 7508.445 2.314544E+08
253 7508.611 8.011124E+07
254 7508.777 2.540685E+08
255 7508.943 1.213038E+08
256 7509.11 1.314779E+08
257 7509.276 2.473788E+08
258 7509.442 7.829897E+07
259 7509.608 2.549662E+08
260 7509.774 2.167535E+08
261 7509.941 1.027248E+08
262 7510.107 3.090119E+08
263 7510.273 1.202879E+08
264 7510.439 1.266539E+08
265 7510.606 1.933966E+08
266 7510.772 5.759454E+07
267 7510.938 1.859024E+08
268 7511.104 1.289421E+08
269 7511.271 9.47623E+07
270 7511.437 2.533644E+08
271 7511.603 8.748062E+07
272 7511.77 1.698599E+08
273 7511.936 2.132561E+08
274 7512.102 6.455719E+07
275 7512.268 2.066023E+08
276 7512.434 1.171878E+08
277 7512.601 1.090653E+08
278 7512.767 2.434916E+08
279 7512.933 7.292952E+07
280 7513.099 1.594859E+08
281 7513.265 1.624207E+08
282 7513.432 6.244462E+07
283 7513.598 2.030672E+08
284 7513.764 9.547538E+07
285 7513.93 1.205469E+08
286 7514.097 2.222514E+08
287 7514.263 6.255802E+07
288 7514.429 1.6827E+08
289 7514.595 1.392486E+08
290 7514.761 7.029088E+07
291 7514.928 2.096317E+08
292 7515.094 8.100146E+07
293 7515.26 1.056455E+08
294 7515.426 1.58212E+08
295 7515.592 4.631037E+07
296 7515.759 1.470676E+08
297 7515.925 9.946403E+07
298 7516.091 7.61871E+07
299 7516.257 1.995979E+08
300 7516.424 6.864049E+07
301 7516.59 1.461442E+08
302 7516.756 1.787765E+08
303 7516.922 4.70621E+07
304 7517.088 1.340755E+08
305 7517.255 7.424456E+07
306 7517.421 7.293146E+07
307 7517.587 1.592726E+08
308 7517.753 5.010749E+07
309 7517.919 1.354829E+08
310 7518.086 1.345253E+08
311 7518.252 4.725844E+07
312 7518.418 1.460684E+08
313 7518.584 6.672754E+07
314 7518.751 8.013082E+07
315 7518.917 1.436875E+08
316 7519.083 4.113253E+07
317 7519.25 1.172507E+08
318 7519.416 9.449102E+07
319 7519.582 4.650264E+07
320 7519.748 1.350306E+08
321 7519.915 5.185107E+07
322 7520.081 8.048437E+07
323 7520.247 1.179104E+08
324 7520.413 3.403524E+07
325 7520.579 1.066907E+08
326 7520.746 6.98488E+07
327 7520.912 4.166305E+07
328 7521.078 1.037314E+08
329 7521.244 3.449569E+07
330 7521.41 6.927786E+07
331 7521.577 8.263006E+07
332 7521.743 3.075855E+07
333 7521.909 1.085761E+08
334 7522.075 5.866898E+07
335 7522.242 5.820334E+07
336 7522.408 1.239539E+08
337 7522.574 3.680001E+07
338 7522.74 8.868487E+07
339 7522.906 8.570243E+07
340 7523.073 3.206655E+07
341 7523.239 9.972232E+07
342 7523.405 4.402446E+07
343 7523.571 4.607844E+07
344 7523.737 8.007517E+07
345 7523.904 2.266155E+07
346 7524.07 6.464515E+07
347 7524.236 5.102047E+07
348 7524.402 3.467769E+07
349 7524.569 1.035848E+08
350 7524.735 3.773185E+07
351 7524.901 4.412273E+07
352 7525.067 6.253866E+07
353 7525.233 2.026445E+07
354 7525.4 7.055075E+07
355 7525.566 4.49837E+07
356 7525.732 2.62167E+07
357 7525.898 6.35291E+07
358 7526.064 1.717458E+07
359 7526.231 463820.7
360 7526.397 1250.972
361 7526.563 0.3369601
362 7526.729 9.06447E-06
363 7526.896 2.435228E-11
364 7527.062 6.533861E-18
365 7527.228 1.750787E-25
366 7527.395 4.685561E-34
367 7527.561 0
368 7527.727 0
369 7527.893 0
370 7528.06 0
371 7528.226 0
372 7528.392 0
373 7528.558 0
374 7528.724 0
375 7528.891 0
376 7529.057 0
377 7529.223 0
378 7529.389 0
379 7529.555 0
380 7529.722 0
381 7529.888 0
382 7530.054 0
383 7530.22 0
384 7530.387 0
385 7530.553 0
386 7530.719 0
387 7530.885 0
388 7531.051 0
389 7531.218 0
390 7531.384 0
391 7531.55 0
392 7531.716 0
393 7531.882 0
394 7532.049 0
395 7532.215 0
396 7532.381 0
397 7532.547 0
398 7532.714 0
399 7532.88 0
400 7533.046 0
401 7533.212 0
402 7533.378 0
403 7533.545 0
404 7533.711 0
405 7533.877 0
406 7534.043 0
407 7534.209 0
408 7534.376 0
409 7534.542 0
410 7534.708 0
411 7534.875 0
412 7535.041 0
413 7535.207 0
414 7535.373 0
415 7535.54 0
416 7535.706 0
417 7535.872 0
418 7536.038 0
419 7536.205 0
